<?xml version="1.0" encoding="UTF-8" standalone="no"?>
<!-- Created with Inkscape (http://www.inkscape.org/) -->

<svg
   xmlns:osb="http://www.openswatchbook.org/uri/2009/osb"
   xmlns:dc="http://purl.org/dc/elements/1.1/"
   xmlns:cc="http://creativecommons.org/ns#"
   xmlns:rdf="http://www.w3.org/1999/02/22-rdf-syntax-ns#"
   xmlns:svg="http://www.w3.org/2000/svg"
   xmlns="http://www.w3.org/2000/svg"
   xmlns:sodipodi="http://sodipodi.sourceforge.net/DTD/sodipodi-0.dtd"
   xmlns:inkscape="http://www.inkscape.org/namespaces/inkscape"
   width="225.77777mm"
   height="211.66667mm"
   viewBox="0 0 799.99998 750.00001"
   id="svg2"
   version="1.1"
   inkscape:version="0.91 r13725"
   inkscape:export-filename="C:\Users\Paul\Development\bedfordandco.co.uk\Themes\BedfordCov2\images\payroll.png"
   inkscape:export-xdpi="22.5"
   inkscape:export-ydpi="22.5"
   sodipodi:docname="payroll.svg">
  <defs
     id="defs4">
    <marker
       inkscape:stockid="Arrow1Lstart"
       orient="auto"
       refY="0.0"
       refX="0.0"
       id="Arrow1Lstart"
       style="overflow:visible"
       inkscape:isstock="true">
      <path
         id="path5658"
         d="M 0.0,0.0 L 5.0,-5.0 L -12.5,0.0 L 5.0,5.0 L 0.0,0.0 z "
         style="fill-rule:evenodd;stroke:#000000;stroke-width:1pt;stroke-opacity:1;fill:#ffffff;fill-opacity:1"
         transform="scale(0.8) translate(12.5,0)" />
    </marker>
    <linearGradient
       id="linearGradient5648"
       osb:paint="solid">
      <stop
         style="stop-color:#000000;stop-opacity:1;"
         offset="0"
         id="stop5650" />
    </linearGradient>
    <linearGradient
       id="linearGradient5602"
       osb:paint="solid">
      <stop
         style="stop-color:#000000;stop-opacity:1;"
         offset="0"
         id="stop5604" />
    </linearGradient>
    <clipPath
       clipPathUnits="userSpaceOnUse"
       id="clipPath7136">
      <rect
         style="opacity:1;fill:#ffffff;fill-opacity:1;fill-rule:nonzero;stroke:#000000;stroke-width:2.98089623;stroke-linecap:round;stroke-linejoin:round;stroke-miterlimit:4;stroke-dasharray:none;stroke-opacity:1"
         id="rect7138"
         width="387.92783"
         height="168.72473"
         x="221.91692"
         y="302.83078" />
    </clipPath>
    <clipPath
       clipPathUnits="userSpaceOnUse"
       id="clipPath7158">
      <path
         style="opacity:1;fill:#ffffff;fill-opacity:1;fill-rule:nonzero;stroke:#000000;stroke-width:2;stroke-linecap:round;stroke-linejoin:round;stroke-miterlimit:4;stroke-dasharray:none;stroke-opacity:1"
         d="M 15.355352,112.43161 819.4368,81.116881 C 752.09329,158.73026 766.57215,364.63302 706.42598,378.35425 593.8836,404.02871 649.54987,633.34454 640.6398,750.84799 627.47142,924.50858 37.578708,663.97486 37.578708,663.97486 Z"
         id="path7160"
         inkscape:connector-curvature="0"
         sodipodi:nodetypes="ccsscc" />
    </clipPath>
  </defs>
  <sodipodi:namedview
     id="base"
     pagecolor="#d8d8d8"
     bordercolor="#666666"
     borderopacity="1.0"
     inkscape:pageopacity="0"
     inkscape:pageshadow="2"
     inkscape:zoom="0.98994949"
     inkscape:cx="100.5099"
     inkscape:cy="357.92629"
     inkscape:document-units="px"
     inkscape:current-layer="layer1"
     showgrid="false"
     fit-margin-top="0"
     fit-margin-left="0"
     fit-margin-right="0"
     fit-margin-bottom="0"
     inkscape:window-width="1600"
     inkscape:window-height="837"
     inkscape:window-x="1912"
     inkscape:window-y="175"
     inkscape:window-maximized="1" />
  <metadata
     id="metadata7">
    <rdf:RDF>
      <cc:Work
         rdf:about="">
        <dc:format>image/svg+xml</dc:format>
        <dc:type
           rdf:resource="http://purl.org/dc/dcmitype/StillImage" />
        <dc:title />
      </cc:Work>
    </rdf:RDF>
  </metadata>
  <g
     inkscape:label="Layer 1"
     inkscape:groupmode="layer"
     id="layer1"
     transform="translate(19.999987,-123.07648)">
    <path
       style="fill:#ffffff;fill-opacity:1;stroke:#000000;stroke-width:5.74449396;stroke-linecap:round;stroke-linejoin:round;stroke-miterlimit:4;stroke-dasharray:none;stroke-opacity:1"
       d="M 464.69838,860.20023 C 401.79281,848.85476 354.95292,823.27896 335.12893,789.4519 c -4.07448,-6.95256 -7.67393,-12.64105 -7.99878,-12.64105 -0.32485,0 -12.15776,2.60688 -26.29536,5.79309 -15.01266,3.38343 -42.43093,6.52454 -65.91615,7.55154 C 150.17687,793.8612 74.820249,773.17864 37.308243,735.91881 11.380583,710.16544 12.454373,718.10907 12.382567,551.52822 c -0.06147,-142.45257 0.09421,-146.6206 5.92197,-158.65928 15.9599,-32.96877 67.963886,-59.55748 137.223383,-70.15992 l 23.3819,-3.57936 0.0632,-54.7938 c 0.054,-46.77957 0.8281,-56.4778 5.29361,-66.30743 18.26313,-40.2015 96.69443,-67.49669 193.83182,-67.45622 96.68721,0.0402 170.77502,23.82759 194.86071,62.56377 6.1533,9.89619 6.73234,14.57898 8.06535,65.2283 l 1.43612,54.56669 17.23349,2.14207 c 44.96511,5.58899 96.62161,25.41496 121.0989,46.4783 6.57446,5.65746 15.29891,16.99957 19.38767,25.20468 l 7.43415,14.91837 0,181.31209 c 0,208.90829 1.22177,198.12746 -25.50814,225.08404 -26.13363,26.35522 -67.8257,44.7119 -121.21635,53.3706 -36.6466,5.9432 -99.53623,5.37019 -136.19184,-1.24089 z m 181.66963,-36.3362 c 10.78052,-4.70235 12.20705,-6.42019 12.20705,-14.6999 0,-5.46448 1.49767,-9.46988 3.59031,-9.60207 2.87224,-0.18152 2.87224,-0.51648 0,-1.67546 -4.55725,-1.8389 -4.77575,-21.07575 -0.23926,-21.07575 1.843,0 2.69885,-0.65208 1.90186,-1.44908 -0.797,-0.79699 -5.21307,-0.23839 -9.8135,1.24148 -4.60044,1.47978 -15.66713,4.71542 -24.59263,7.19029 l -16.2282,4.49978 0,21.88477 0,21.88477 10.4837,-1.4371 c 5.76604,-0.79041 15.97688,-3.83319 22.69075,-6.76173 z m 6.78307,-64.81191 c 6.37504,-3.58298 10.20342,-6.97706 8.50751,-7.54235 -4.38469,-1.46157 -3.92013,-20.60202 0.50678,-20.88164 2.87224,-0.18152 2.87224,-0.51648 0,-1.67546 -1.97467,-0.79679 -3.59031,-4.5723 -3.59031,-8.38998 0,-3.8177 -0.51011,-6.94127 -1.13356,-6.94127 -5.40086,0 -40.97186,12.8641 -42.55631,15.3903 -1.12325,1.79088 -1.97895,11.50614 -1.90154,21.58945 l 0.14074,18.33326 14.21782,-1.68388 c 7.81981,-0.92616 19.43383,-4.61544 25.8089,-8.19843 z m -261.695,-4.68544 c 0,-1.28613 -5.74024,-6.6394 -12.75608,-11.89616 -7.01586,-5.25675 -16.06344,-14.20607 -20.10573,-19.88735 -9.43151,-13.25562 -9.60841,-6.68122 -0.2203,8.19036 9.05223,14.33981 33.08211,31.47715 33.08211,23.59315 z m 261.59878,-55.22653 c 3.03611,-1.62489 5.5202,-5.49386 5.5202,-8.59776 0,-3.10389 1.61564,-5.7455 3.59031,-5.87021 2.87224,-0.18152 2.87224,-0.51649 0,-1.67547 -4.08868,-1.64981 -4.94535,-20.09599 -1.00104,-21.55446 1.42409,-0.52657 1.10096,-2.30681 -0.71806,-3.95609 -2.32514,-2.10814 -9.88418,-1.00724 -25.45331,3.70701 l -22.146,6.70566 0.32514,21.06802 0.32516,21.06799 17.0187,-3.97019 c 9.36031,-2.1836 19.50279,-5.29964 22.5389,-6.9245 z M 385.6031,687.88792 c -5.46942,-4.67501 -10.85456,-8.55255 -11.96699,-8.61674 -1.11245,-0.0641 -6.60562,-6.11889 -12.20705,-13.45487 -11.34928,-14.86371 -14.01355,-12.09785 -3.39672,3.52623 7.62775,11.2252 26.92428,26.84391 33.31526,26.96549 2.33625,0.0445 -0.21284,-3.69179 -5.7445,-8.42011 z M 72.831074,679.83207 C 67.875098,677.43182 58.07907,669.08243 51.062113,661.2779 c -11.254699,-12.51791 -12.41098,-13.19433 -9.8124,-5.74004 4.822502,13.83386 30.891505,34.65369 37.937845,30.29882 1.459934,-0.90229 -1.400479,-3.60436 -6.356484,-6.00461 z M 642.66996,644.48112 c 15.58269,-5.83023 15.9051,-6.17959 15.9051,-17.23349 0,-6.99033 1.36587,-11.36887 3.59031,-11.50938 2.87224,-0.18152 2.87224,-0.51648 0,-1.67547 -1.97467,-0.79679 -3.59031,-4.5723 -3.59031,-8.38997 0,-8.46753 -5.86487,-8.80252 -28.72247,-1.64054 l -15.79736,4.94977 -0.63296,20.72496 c -0.6173,20.21274 -0.46025,20.72498 6.35482,20.72498 3.84327,0 14.14507,-2.67788 22.89287,-5.95086 z m -248.34163,-8.30933 c 0,-1.52416 -2.90815,-4.30119 -6.46256,-6.17119 -9.76633,-5.1382 -22.93058,-16.70548 -30.15859,-26.50004 -3.55441,-4.81653 -6.45773,-7.53681 -6.45182,-6.04511 0.0258,6.55657 12.37097,21.98257 25.01547,31.25867 14.38398,10.5522 18.0575,12.06935 18.0575,7.45767 z M 69.764433,622.55306 C 64.235358,618.31285 54.578461,609.60273 48.304669,603.19725 l -11.40687,-11.64633 5.798808,10.01078 c 5.939548,10.25375 27.714714,28.78983 33.753642,28.7327 1.851881,-0.0172 -1.15674,-3.50113 -6.685816,-7.74134 z M 642.05964,585.48574 c 12.19978,-3.7206 16.51542,-6.40078 16.51542,-10.25671 0,-2.87099 1.61564,-5.32202 3.59031,-5.44673 2.87224,-0.18153 2.87224,-0.51649 0,-1.67547 -4.31303,-1.74035 -4.86792,-21.07574 -0.60481,-21.07574 1.82706,0 1.64864,-1.43107 -0.45985,-3.68823 -2.7976,-2.99483 -7.64506,-2.66886 -25.78396,1.73389 l -22.33861,5.42212 0,18.93658 c 0,10.41511 0.67426,20.02752 1.49833,21.36093 1.59036,2.57324 1.97444,2.49931 27.58317,-5.31064 z m -247.73131,-6.46931 c 0,-1.36489 -5.19254,-6.08006 -11.53897,-10.47813 -6.34643,-4.39807 -16.04026,-12.97891 -21.54185,-19.0685 -11.01432,-12.19154 -13.5348,-9.72175 -3.8948,3.81641 5.84681,8.21109 30.32381,27.99197 34.82143,28.14064 1.1848,0.0391 2.15419,-1.04553 2.15419,-2.41042 z m -313.074908,-4.3173 c 0,-0.57997 -5.493173,-4.67309 -12.20705,-9.09583 -6.713878,-4.42278 -16.552674,-12.67273 -21.863947,-18.33324 -9.507224,-10.13234 -9.589083,-10.15831 -5.282867,-1.6751 4.632188,9.12528 16.867989,21.53973 26.428752,26.81456 5.612428,3.09651 12.925112,4.39189 12.925112,2.28961 z M 647.80448,525.60401 c 9.526,-3.98022 10.77058,-5.65741 10.77058,-14.51456 0,-5.97568 1.44793,-10.10577 3.59031,-10.24108 2.87224,-0.18153 2.87224,-0.51649 0,-1.67547 -8.84383,-3.56856 -3.16758,-12.34744 13.84736,-21.4163 9.59069,-5.1118 22.83893,-14.35558 29.44053,-20.54174 l 12.00286,-11.24755 -11.48899,8.34911 c -19.7105,14.32372 -31.86583,20.26672 -59.45827,29.07038 -66.65537,21.2671 -168.11612,19.37388 -229.20256,-4.27683 -20.4408,-7.91402 -21.54185,-8.79965 -21.54185,-17.32741 0,-4.94287 0.96938,-8.38796 2.15419,-7.65571 1.1848,0.73225 2.15418,-0.11374 2.15418,-1.87992 0,-1.80457 1.57273,-2.2664 3.59031,-1.05428 2.56012,1.53809 2.48918,0.79868 -0.2473,-2.57693 -2.11067,-2.60363 -3.00377,-6.08301 -1.98467,-7.73197 1.01914,-1.64893 0.63141,-2.99805 -0.86155,-2.99805 -4.2183,0 -11.98578,-18.52226 -11.98578,-28.58113 0,-4.97384 1.89345,-12.70489 4.20767,-17.18009 4.64078,-8.97425 25.67766,-24.08738 40.20017,-28.88024 5.12518,-1.69146 10.68804,-6.08121 12.36193,-9.75501 2.99342,-6.56984 2.84691,-6.64245 -8.91161,-4.41769 -14.88462,2.81621 -42.12136,14.76809 -59.95741,26.31019 -13.56841,8.7804 -28.11221,26.96833 -28.11221,35.15604 0,6.91769 -2.61877,5.37897 -19.07195,-11.20607 -16.19195,-16.32175 -29.83687,-22.72416 -57.87675,-27.15667 -13.53989,-2.14037 -14.22119,-1.95715 -11.12982,2.99291 1.81113,2.90005 4.74648,5.27282 6.52305,5.27282 5.31096,0 18.36604,11.57257 18.36604,16.28041 0,2.406 10.5713,14.69315 23.49179,27.30482 21.2816,20.77298 24.119,22.64453 30.15859,19.89272 4.98562,-2.2716 6.67387,-5.40712 6.69487,-12.43399 0.0287,-9.20153 0.16687,-9.09815 6.72548,4.98577 8.64308,18.56028 23.21454,31.13363 51.96225,44.83695 31.23793,14.89036 65.69622,20.37957 130.85251,20.84487 27.64538,0.19733 56.72688,-0.61362 64.62556,-1.8023 l 14.36124,-2.16125 -0.60748,17.6158 -0.60745,17.61578 12.09678,-1.65803 c 6.65324,-0.91194 16.94356,-3.68317 22.8674,-6.1583 z M 81.253422,520.37597 c 0,-0.4427 -6.814493,-5.74219 -15.143291,-11.77667 -8.328798,-6.03447 -18.137637,-15.04296 -21.797397,-20.0189 -6.067363,-8.24935 -6.476486,-8.41396 -4.63977,-1.8665 2.432535,8.67131 14.032995,21.75322 25.783099,29.07567 7.473386,4.65729 15.797359,7.07397 15.797359,4.5864 z m 313.074908,-1.6063 c 0,-1.32617 -3.07219,-3.81101 -6.82707,-5.52184 -9.80881,-4.46921 -27.72178,-20.78929 -33.85251,-30.84222 -7.50757,-12.31065 -6.4457,-5.10363 1.24989,8.48307 9.50466,16.7807 39.42969,37.94086 39.42969,27.88099 z M 243.53087,501.30342 c 3.34502,-1.30549 -13.43289,-2.94155 -40.21146,-3.92113 -61.43429,-2.24734 -106.730343,-13.24083 -119.847953,-29.08748 -5.708792,-6.89649 -6.661459,-11.61344 -1.729954,-8.56559 2.279874,1.40904 2.752216,0.49202 1.469039,-2.85191 -1.040242,-2.7108 -0.749053,-4.22278 0.64706,-3.35992 6.063945,3.74773 5.224502,-7.92109 -1.256924,-17.472 -8.45196,-12.45466 -9.344798,-29.36238 -2.190117,-41.47427 2.923718,-4.94945 12.77541,-12.43536 24.414099,-18.55132 10.73184,-5.63943 19.51247,-11.55184 19.51247,-13.13867 0,-1.5868 1.14554,-2.17713 2.5457,-1.31178 1.40014,0.86532 3.18521,-0.87225 3.96686,-3.86128 1.3063,-4.99524 -0.58289,-4.74168 -23.36949,3.13681 -36.042424,12.4617 -56.184171,25.77951 -65.258548,43.14928 -5.272153,10.09173 -5.184262,31.98712 0.170037,42.34109 9.494759,18.36081 54.870632,43.8435 87.900531,49.36413 42.78651,7.15135 101.79203,10.07145 113.23871,5.60404 z M 544.4579,458.97965 c -1.9446,-0.78676 -5.82214,-0.83464 -8.61675,-0.10627 -2.79461,0.72823 -1.20355,1.37196 3.53565,1.43049 4.73921,0.0586 7.02569,-0.53728 5.0811,-1.32407 z m 124.93028,-25.25661 10.72873,-9.90719 -23.88957,-24.09625 c -24.95988,-25.17585 -34.82964,-30.44801 -66.25025,-35.38902 -15.92393,-2.50411 -15.29218,3.13931 1.31193,11.71909 6.70966,3.46703 13.27837,9.83661 16.218,15.7263 4.90005,9.81748 44.52902,51.85422 48.88415,51.85422 1.24753,0 7.09618,-4.45821 12.99701,-9.90715 z M 224.14772,381.33308 c -2.76454,-0.72243 -7.28833,-0.72243 -10.05287,0 -2.76454,0.72246 -0.50264,1.31356 5.02643,1.31356 5.52908,0 7.79097,-0.5911 5.02644,-1.31356 z m 320.25552,-5.6668 c -1.97467,-0.79679 -5.20595,-0.79679 -7.18062,0 -1.97467,0.79679 -0.35903,1.44873 3.59031,1.44873 3.94934,0 5.56498,-0.65194 3.59031,-1.44873 z m -71.2751,-64.08836 c 6.48062,-2.46393 7.37185,-4.45222 7.40299,-16.51542 l 0.0353,-13.71427 20.24958,-8.19816 c 25.08543,-10.15595 24.8628,-12.5926 -0.31992,-3.50145 -61.3501,22.14787 -169.80859,22.82974 -231.11059,1.45299 -9.47841,-3.30524 -18.34478,-7.08225 -19.70307,-8.39334 -1.36541,-1.31799 -0.25706,-6.12935 2.47901,-10.7611 4.84637,-8.20423 4.79352,-8.54465 -2.55682,-16.47584 -8.8103,-9.50651 -10.25659,-27.90383 -3.00721,-38.25374 4.62699,-6.60597 23.92524,-17.83413 30.65213,-17.83413 3.59516,0 13.67787,-9.72025 13.67787,-13.18617 0,-5.21373 -49.03965,12.9975 -66.57395,24.72273 -10.87384,7.27141 -19.59343,21.48044 -19.59343,31.92858 0,19.40832 19.11136,36.43928 57.15111,50.92986 31.73086,12.0873 62.27735,15.77892 132.35765,15.99568 l 61.6938,0.19072 -0.87819,12.20705 c -0.76301,10.60629 -0.12063,12.20705 4.89897,12.20705 3.17742,0 9.09258,-1.26051 13.14475,-2.80116 z m 30.65584,-77.06228 9.01762,-8.05722 -18.30713,-18.0436 C 473.58468,187.80601 463.39134,182.67865 438.95788,180.4794 l -17.34321,-1.56107 9.33481,6.25912 c 5.13414,3.44253 9.3348,7.71925 9.3348,9.50383 0,5.30955 43.95308,47.89162 49.43356,47.89162 2.77668,0 9.10643,-3.62575 14.06614,-8.05726 z M 386.42965,183.22573 c -1.97467,-0.79679 -5.20595,-0.79679 -7.18062,0 -1.97467,0.79679 -0.35903,1.44873 3.59031,1.44873 3.94934,0 5.56498,-0.65194 3.59031,-1.44873 z"
       id="path7253"
       inkscape:connector-curvature="0" />
  </g>
</svg>
